served: 43188    potential: 52762  81.85%
served: 42565    potential: 50682
served: 42007    potential: 49686
served: 42182    potential: 49847  84.62%
----------------------------------

served: 39703    potential: 54554  72.77%
served: 39558    potential: 53570
served: 39217    potential: 52991
served: 38940    potential: 52446  74.24%
----------------------------------

served: 43504    potential: 52788  82.42%
served: 43385    potential: 52026
served: 43179    potential: 51406
served: 43111    potential: 51315  84.01%
-----------------------------------

served: 42505    potential: 53315  79.72%
served: 41904    potential: 52533
served: 41595    potential: 52228
served: 41407    potential: 52081  79.5%
-----------------------------------------
81.3, 1.15
82.7, 2.2
-------------------------------------------
42.6, 1.1, 53.3, 1.2
40.8, 0.8, 51.1, 0.9
