served_my algo: 71033    potential: 131701
served_my algo: 13272    potential: 22011
served_my algo: 13303    potential: 21987
served_my algo: 13323    potential: 21913
served_my algo: 13595    potential: 22278
