served: 20405    potential: 32312 (63.12%)
served: 18801    potential: 28925
served: 18841    potential: 28295
served: 18373    potential: 28113 (65.35%)
----------------------------------

served: 20761    potential: 31614 (65.67%)
served: 19402    potential: 27792
served: 18863    potential: 27095
served: 18576    potential: 27187 (68.32%)
----------------------------------

served: 19763    potential: 29410 (67.19%)
served: 18687    potential: 26459
served: 17832    potential: 24750
served: 17704    potential: 24408 (72.53%)
----------------------------------

served: 20445    potential: 31575 (64.75%)
served: 19562    potential: 29527
served: 19046    potential: 28082
served: 18804    potential: 26902 (69.89%)
-------------------------------------------
64.51, 1.05
70.24, 1.73
---------------------------------------------
20.45, 0.15, 31.8, 0.3
18.5, 0.23, 27.5, 0.4
