served_my algo: 6919    potential: 12016
served_my algo: 8595    potential: 12124
served_my algo: 9112    potential: 12022
served_my algo: 9565    potential: 12221
served_my algo: 9776    potential: 12181
served_my algo: 9974    potential: 12214
served_my algo: 10043    potential: 12212
served_my algo: 10003    potential: 11954
served_my algo: 10272    potential: 12216
served_my algo: 10368    potential: 12116
