served_my algo: 53865    potential: 147350
served_my algo: 5601    potential: 13269
served_my algo: 5760    potential: 13470
served_my algo: 5629    potential: 13232
served_my algo: 5862    potential: 13502
