0
128
152
157
162
161
162
160
167
164
160
158
162
162
169
164
169
173
172
158
153
166
162
165
170
170
169
165
168
161
162
163
168
153
167
160
170
172
164
168
164
171
170
169
164
163
165
166
163
167
165
167
164
164
163
173
168
170
169
169
168
165
165
164
162
165
166
164
173
168
165
163
167
165
174
167
166
159
167
165
170
173
174
164
161
167
169
168
169
166
157
170
171
163
166
165
166
172
168
165
161
