0
242
276
267
269
295
277
279
297
283
286
303
300
303
302
300
308
307
296
302
300
308
291
293
312
309
303
298
316
311
311
306
312
310
310
299
299
305
307
302
303
304
313
303
304
312
295
297
303
308
302
311
299
309
308
296
319
310
308
317
310
314
311
306
304
307
319
302
319
309
315
308
312
303
309
313
322
319
304
313
301
298
287
309
300
300
301
314
318
307
315
308
295
313
304
303
301
314
302
302
314
