1:set([27, 1001, 3, 36])
2:set([3, 36, 9, 13, 1039, 22])
3:set([9, 3, 36, 22, 1039])
4:set([1024, 2, 9, 12, 13, 15])
5:set([1035, 29])
6:set([9, 13, 1017])
7:set([1038])
8:set([29, 1038])
9:set([1024, 9, 12, 13, 15])
10:set([1039])
11:set([1032, 27, 29])
12:set([1001])
13:set([1014, 12, 13, 22, 23])
14:set([1001, 36])
15:set([13, 22, 1039])
16:set([1016])
17:set([1032, 2, 3])
18:set([1001, 27, 29, 15])
19:set([1017])
20:set([1035, 36])
21:set([1024, 9, 15])
22:set([3, 13, 1039])
23:set([1024])
24:set([22, 1039])
25:set([1016, 4])
26:set([1016])
27:set([9, 2, 1039])
28:set([1038])
29:set([23, 1014, 15])
30:set([1006])
31:set([1028, 22])
32:set([1035, 3])
33:set([1032])
34:set([1001, 4])
35:set([1031])
36:set([1035])
37:set([1028, 27, 12])
38:set([1038])
39:set([1039])
40:set([1031])
41:set([1016])
42:set([1032])
43:set([1006])
44:set([1001])
45:set([1035, 4])
46:set([1016])
47:set([1038])
48:set([1038])
49:set([1024, 29])
50:set([1035])
51:set([4, 1006])
52:set([36, 1038])
53:set([1006])
54:set([1032])
55:set([1016])
56:set([1017])
57:set([1001])
58:set([1035])
59:set([1016])
60:set([1038])
61:set([1032, 29])
62:set([1032])
63:set([1017])
64:set([1017])
65:set([1033, 34])
66:set([1014, 23])
67:set([22, 1039])
68:set([1035])
69:set([1033])
70:set([1035])
71:set([1001])
72:set([1033])
73:set([1016])
74:set([1001])
75:set([1028])
76:set([1031])
77:set([1033])
78:set([1016])
79:set([1031])
80:set([1006])
81:set([1031])
82:set([1017])
83:set([1032])
84:set([23, 3, 12, 1014, 15])
85:set([1024])
86:set([1031])
87:set([1031])
88:set([1038])
89:set([1017])
90:set([1035])
91:set([1001])
92:set([1028])
93:set([1006])
94:set([1028])
95:set([1024, 9, 15])
96:set([1016])
97:set([1024])
98:set([1001])
99:set([1032])
100:set([1016])
101:set([1033])
102:set([1028, 13])
103:set([1031])
104:set([1017])
105:set([1038])
106:set([1039])
107:set([1038])
108:set([3, 1039])
109:set([1001])
110:set([1001])
111:set([1035, 36])
112:set([1028])
113:set([1006])
114:set([1001])
115:set([1024])
116:set([1032])
117:set([1038])
118:set([9, 34, 1033])
119:set([1016])
120:set([1024])
121:set([1038])
122:set([1031])
123:set([1014])
124:set([1031])
125:set([1016])
126:set([1028, 22])
127:set([2, 1031])
128:set([1028, 12])
129:set([1014])
130:set([1006])
131:set([1016])
132:set([1038])
133:set([1001])
134:set([1033, 4])
135:set([1028])
136:set([1033])
137:set([1016])
138:set([1017])
139:set([1039])
140:set([1038])
141:set([1031])
142:set([1033, 34])
143:set([1016])
144:set([1014, 23])
145:set([1001])
146:set([1038])
147:set([1032])
148:set([1038])
149:set([1024])
150:set([1017])
151:set([1035])
152:set([1017])
153:set([1016])
154:set([1014, 23])
155:set([1032, 2])
156:set([1031])
157:set([1016])
158:set([1032])
159:set([1028])
160:set([1032])
161:set([1038])
162:set([1024])
163:set([1033, 34])
164:set([2, 1039])
165:set([27, 1028])
166:set([1014, 23])
167:set([1031])
168:set([1017])
169:set([1033])
170:set([1016])
171:set([1014, 23])
172:set([1038])
173:set([1024])
174:set([1016])
175:set([1035])
176:set([1035])
177:set([1032])
178:set([1032])
179:set([1033])
180:set([1024])
181:set([1028])
182:set([1001])
183:set([1024])
184:set([1028, 29])
185:set([1032])
186:set([1016])
187:set([1032])
188:set([1014])
189:set([1032])
190:set([1001])
191:set([1032])
192:set([1024])
193:set([1033])
194:set([1033])
195:set([1035])
196:set([1024])
197:set([1001])
198:set([1033])
199:set([1031])
200:set([1006])
201:set([1024])
202:set([1006])
203:set([1014])
204:set([1028])
205:set([1014, 23])
206:set([1028])
207:set([1006])
208:set([1031])
209:set([1016])
210:set([2, 1038])
211:set([1014, 23])
212:set([1038])
213:set([1006])
214:set([1031])
215:set([1024])
216:set([1006])
217:set([12, 1014])
218:set([1024, 29])
219:set([1014])
220:set([1024, 9])
221:set([1016])
222:set([1035])
223:set([1039])
224:set([1001])
225:set([1024, 15])
226:set([1035])
227:set([1014])
228:set([1039])
229:set([1024])
230:set([1033])
231:set([1035])
232:set([1016])
233:set([1038])
234:set([1006])
235:set([1039])
236:set([1006])
237:set([1028])
238:set([1038])
239:set([1038])
240:set([1033])
241:set([1017])
242:set([1006])
243:set([1024])
244:set([1033])
245:set([1017])
246:set([1035, 36])
247:set([1039])
248:set([1006])
249:set([1024])
250:set([1016])
251:set([1006])
252:set([1014])
253:set([1001])
254:set([1039])
255:set([22, 1039])
256:set([1028])
257:set([1031])
258:set([1039])
259:set([1014])
260:set([27, 1028])
261:set([1016])
262:set([1031])
263:set([1035])
264:set([1017])
265:set([1014])
266:set([1001])
267:set([1033])
268:set([1014])
269:set([1024])
270:set([1028])
271:set([1001])
272:set([1017])
273:set([1028])
274:set([1014])
275:set([1032])
276:set([1001])
277:set([1038])
278:set([1032])
279:set([1014])
280:set([1017])
281:set([1039])
282:set([1033])
283:set([1039])
284:set([1016])
285:set([1039])
286:set([1028])
287:set([1035])
288:set([1006])
289:set([1032])
290:set([13, 1014])
291:set([1031])
292:set([1024, 29])
293:set([1039])
294:set([1039])
295:set([1001])
296:set([1035])
297:set([1039])
298:set([1017])
299:set([1017])
300:set([1014])
301:set([1028])
302:set([1014])
303:set([1038])
304:set([1006])
305:set([1016])
306:set([1024])
307:set([1039])
308:set([1038])
309:set([1028])
310:set([1001])
311:set([1033])
312:set([1031])
313:set([1039])
314:set([1001])
315:set([1014])
316:set([1028])
317:set([1001])
318:set([1016])
319:set([1024])
320:set([1031])
321:set([1035])
322:set([1024])
323:set([1032])
324:set([1006])
325:set([1014])
326:set([1017])
327:set([1006])
328:set([1038])
329:set([1014])
330:set([1006])
331:set([1039])
332:set([1001])
333:set([1017])
334:set([1016])
335:set([1039])
336:set([1033, 4])
337:set([1033])
338:set([1024])
339:set([1014])
340:set([1035])
341:set([1031])
342:set([1016])
343:set([1035])
344:set([1024])
345:set([1039])
346:set([1038])
347:set([1024])
348:set([1031])
349:set([4, 1006])
350:set([1001])
351:set([1028])
352:set([1017])
353:set([1035])
354:set([1038])
355:set([1032])
356:set([1032])
357:set([1031])
358:set([1035])
359:set([1016])
360:set([1006])
361:set([1028])
362:set([1014])
363:set([1028])
364:set([1031])
365:set([1028])
366:set([1028])
367:set([1038])
368:set([1028])
369:set([1028])
370:set([1024])
371:set([1035])
372:set([13, 1014])
373:set([1035])
374:set([1039])
375:set([1016])
376:set([1033])
377:set([1033])
378:set([1032])
379:set([1001])
380:set([1035])
381:set([1006])
382:set([1017])
383:set([1035, 36])
384:set([1038])
385:set([1001])
386:set([1014])
387:set([1006])
388:set([1006])
389:set([1038])
390:set([1033])
391:set([1016])
392:set([1017])
393:set([1033])
394:set([12, 1014])
395:set([1001])
396:set([1024, 29])
397:set([1001])
398:set([1017])
399:set([1016])
400:set([1031])
401:set([1031])
402:set([1016])
403:set([1006])
404:set([1032])
405:set([1032])
406:set([27, 1028])
407:set([1031])
408:set([1038])
409:set([1024])
410:set([1024])
411:set([1032])
412:set([1016])
413:set([1039])
414:set([1024])
415:set([1033])
416:set([1035])
417:set([1016])
418:set([1038])
419:set([1017])
420:set([1016])
421:set([1031])
422:set([1031])
423:set([1001])
424:set([1017])
425:set([1038])
426:set([1035])
427:set([1031])
428:set([1016])
429:set([1024])
430:set([1031])
431:set([1024])
432:set([1031])
433:set([1039])
434:set([1014])
435:set([1016])
436:set([1001])
437:set([1017])
438:set([27, 1028])
439:set([1006])
440:set([1035])
441:set([1024])
442:set([1033])
443:set([1006])
444:set([1006])
445:set([1031])
446:set([1039])
447:set([1032])
448:set([1032])
449:set([1033, 34])
450:set([1017])
451:set([1016, 22])
452:set([1001])
453:set([1039])
454:set([1014])
455:set([1017])
456:set([1032, 3])
457:set([1028])
458:set([1017])
459:set([1033, 34])
460:set([1028])
461:set([1028])
462:set([1028])
463:set([1032])
464:set([1031])
465:set([1006])
466:set([1031])
467:set([1032])
468:set([1001])
469:set([1032])
470:set([1014])
471:set([1031])
472:set([1031])
473:set([1016])
474:set([1017])
475:set([1017])
476:set([1032])
477:set([1033])
478:set([1024])
479:set([1031])
480:set([1039])
481:set([1035])
482:set([1001])
483:set([1006])
484:set([1035])
485:set([1033])
486:set([1039])
487:set([1028])
488:set([1017])
489:set([1039])
490:set([1014])
491:set([1032])
492:set([1039])
493:set([1031])
494:set([1033])
495:set([1033])
496:set([1039])
497:set([1035])
498:set([1033])
499:set([1001])
500:set([1032])
501:set([1031])
502:set([1035])
503:set([1006])
504:set([1035])
505:set([1006])
506:set([1028])
507:set([1032])
508:set([1038])
509:set([1024, 2, 29])
510:set([1039])
511:set([1024])
512:set([1032])
513:set([1038])
514:set([1006])
515:set([1035])
516:set([1001])
517:set([1031])
518:set([1039])
519:set([1033])
520:set([1024])
521:set([1017])
522:set([1033])
523:set([1035])
524:set([1038])
525:set([1014])
526:set([1024])
527:set([1024])
528:set([1017])
529:set([1031])
530:set([1038])
531:set([1038])
532:set([1016])
533:set([1017])
534:set([1024])
535:set([1016])
536:set([1033])
537:set([1033])
538:set([1033])
539:set([1031])
540:set([1028])
541:set([1032])
542:set([1016])
543:set([1032])
544:set([1028])
545:set([1024])
546:set([3, 1039])
547:set([1006])
548:set([1024])
549:set([1016])
550:set([1017])
551:set([1039])
552:set([1032])
553:set([1038])
554:set([1038])
555:set([1028])
556:set([1033])
557:set([1033, 34])
558:set([1017])
559:set([1001])
560:set([1014])
561:set([1028])
562:set([1016])
563:set([1035])
564:set([1031])
565:set([1032])
566:set([1028, 12])
567:set([1006])
568:set([1032])
569:set([1017])
570:set([1033])
571:set([1035])
572:set([1028])
573:set([1001])
574:set([1016])
575:set([1035])
576:set([1032])
577:set([1035])
578:set([1017])
579:set([1014])
580:set([1001])
581:set([1038])
582:set([1035])
583:set([12, 1014])
584:set([1033])
585:set([1038])
586:set([1024])
587:set([1017])
588:set([1024])
589:set([1017])
590:set([1017])
591:set([1024])
592:set([1006])
593:set([1014])
594:set([1032])
595:set([1001])
596:set([1032])
597:set([1014])
598:set([13, 1014])
599:set([1031])
600:set([1031])
601:set([1033, 34])
602:set([1031])
603:set([1033])
604:set([1031])
605:set([1035])
606:set([1039])
607:set([1032])
608:set([1035])
609:set([1024])
610:set([1031])
611:set([1033])
612:set([1016])
613:set([1039])
614:set([1039])
615:set([1016])
616:set([1038])
617:set([1032])
618:set([1033])
619:set([1028])
620:set([27, 1028])
621:set([1031])
622:set([1038])
623:set([1014, 23])
624:set([1035])
625:set([1014])
626:set([1038])
627:set([1006])
628:set([1017])
629:set([1033, 34, 4])
630:set([1001])
631:set([1035])
632:set([1017])
633:set([1028])
634:set([1035])
635:set([1033])
636:set([1038])
637:set([1016])
638:set([1001])
639:set([1039])
640:set([1024])
641:set([2, 1038])
642:set([1033])
643:set([1014])
644:set([1032])
645:set([1017])
646:set([1032])
647:set([1024])
648:set([1001])
649:set([1017])
650:set([1038])
651:set([1001])
652:set([1016])
653:set([1039])
654:set([1014])
655:set([1035])
656:set([1006])
657:set([1017])
658:set([1024])
659:set([1024])
660:set([1024])
661:set([1038])
662:set([1028])
663:set([1028])
664:set([1017])
665:set([1014])
666:set([1032])
667:set([1017])
668:set([1033])
669:set([1028])
670:set([1028])
671:set([27, 1028])
672:set([1039])
673:set([1014, 15])
674:set([1039])
675:set([1001])
676:set([1016])
677:set([1031])
678:set([1016])
679:set([1033])
680:set([1039])
681:set([1032])
682:set([1014])
683:set([1024])
684:set([1001])
685:set([1006])
686:set([1014])
687:set([1039])
688:set([1031])
689:set([1024])
690:set([2, 1039])
691:set([1035])
692:set([1024])
693:set([1001])
694:set([1031])
695:set([1001])
696:set([1017])
697:set([1031])
698:set([1039])
699:set([1035])
700:set([1017])
701:set([1035])
702:set([1032])
703:set([1035])
704:set([1017])
705:set([1017])
706:set([1028])
707:set([1006])
708:set([1032])
709:set([1035])
710:set([1028])
711:set([1031])
712:set([1024, 15])
713:set([1006])
714:set([1038])
715:set([1024])
716:set([1033])
717:set([1001])
718:set([1016])
719:set([1035, 36])
720:set([1028, 22])
721:set([1039])
722:set([1001])
723:set([1024])
724:set([1006])
725:set([1024])
726:set([1038])
727:set([1031])
728:set([1016])
729:set([1001])
730:set([1006])
731:set([1031])
732:set([1024])
733:set([1028])
734:set([1001])
735:set([1035])
736:set([1031])
737:set([1016])
738:set([1016])
739:set([1001])
740:set([1024])
741:set([4, 1038])
742:set([1032])
743:set([1014])
744:set([1006])
745:set([1016])
746:set([1035])
747:set([1039])
748:set([1035])
749:set([1035])
750:set([1031])
751:set([1031])
752:set([1024])
753:set([27, 1028])
754:set([1031])
755:set([1033])
756:set([1016])
757:set([1031])
758:set([1014])
759:set([1035])
760:set([1038])
761:set([1006])
762:set([1038])
763:set([1006])
764:set([1017])
765:set([1038])
766:set([1024])
767:set([1033, 34])
768:set([1031])
769:set([1028, 12])
770:set([1001])
771:set([1035])
772:set([1017])
773:set([1024])
774:set([1017])
775:set([1035])
776:set([1001])
777:set([1014])
778:set([1035])
779:set([1035])
780:set([1038])
781:set([1017])
782:set([1016])
783:set([1039])
784:set([1006])
785:set([1032])
786:set([1032])
787:set([1028])
788:set([1001])
789:set([1017])
790:set([1035])
791:set([1038])
792:set([1001])
793:set([1024])
794:set([1031])
795:set([1024])
796:set([1017])
797:set([1038])
798:set([1039])
799:set([1035])
800:set([1038])
801:set([1017])
802:set([1038])
803:set([1017])
804:set([1017])
805:set([1038])
806:set([1035])
807:set([1001])
808:set([1031])
809:set([1014])
810:set([1038])
811:set([1039])
812:set([1001])
813:set([1038])
814:set([1028])
815:set([1014])
816:set([1001])
817:set([1014])
818:set([1039])
819:set([1016])
820:set([1038])
821:set([1028])
822:set([1028])
823:set([1039])
824:set([1039])
825:set([1032])
826:set([1006])
827:set([1035])
828:set([1039])
829:set([1016])
830:set([1033, 34])
831:set([1031])
832:set([1017])
833:set([1017])
834:set([1033])
835:set([1016])
836:set([1035])
837:set([1014])
838:set([1006])
839:set([1031])
840:set([1014])
841:set([1031])
842:set([1032])
843:set([1006])
844:set([1017])
845:set([1038])
846:set([1031])
847:set([1031])
848:set([1038])
849:set([1001])
850:set([1017])
851:set([1035])
852:set([1039])
853:set([1038])
854:set([1031])
855:set([1016])
856:set([1039])
857:set([1017])
858:set([1038])
859:set([1032])
860:set([1033])
861:set([1024])
862:set([1017])
863:set([1038])
864:set([1038])
865:set([1033])
866:set([1024])
867:set([1017])
868:set([1033])
869:set([1033])
870:set([1032])
871:set([1031])
872:set([1006])
873:set([1016])
874:set([1033])
875:set([1016])
876:set([1024, 9, 15])
877:set([1031])
878:set([1038])
879:set([1039])
880:set([1016])
881:set([1038])
882:set([1038])
883:set([1001])
884:set([1032])
885:set([1006])
886:set([1033])
887:set([1035])
888:set([1017])
889:set([1035])
890:set([1039])
891:set([1033])
892:set([1017])
893:set([1039])
894:set([1001])
895:set([1035])
896:set([1031])
897:set([1014])
898:set([1024])
899:set([1024])
900:set([1016])
901:set([1006])
902:set([1035])
903:set([1039])
904:set([1032])
905:set([1028])
906:set([1032])
907:set([1031])
908:set([1017])
909:set([1024])
910:set([1035, 36])
911:set([1032])
912:set([1032])
913:set([1032])
914:set([1038])
915:set([1006])
916:set([1017])
917:set([1017])
918:set([1001])
919:set([1031])
920:set([1017])
921:set([1035])
922:set([1014])
923:set([1006])
924:set([1038])
925:set([1028])
926:set([1031])
927:set([1039])
928:set([1032])
929:set([1001])
930:set([1017])
931:set([1033])
932:set([1039])
933:set([1032])
934:set([1035])
935:set([1032])
936:set([1017])
937:set([1016])
938:set([1035])
939:set([1038])
940:set([1032])
941:set([1033])
942:set([1039])
943:set([1014])
944:set([1006])
945:set([1024])
946:set([1016])
947:set([1006])
948:set([1001])
949:set([1017])
950:set([1033, 4])
951:set([1038])
952:set([1035])
953:set([1017])
954:set([1001])
955:set([1016])
956:set([1001])
957:set([1014])
958:set([1028])
959:set([1016])
960:set([1028])
961:set([1032])
962:set([1017])
963:set([1031])
964:set([1017])
965:set([1031])
966:set([1016])
967:set([1001])
968:set([1039])
969:set([1006])
970:set([1032])
971:set([1031])
972:set([1016])
973:set([1028])
974:set([1001, 4])
975:set([1031])
976:set([1006])
977:set([1014])
978:set([1006])
979:set([1033])
980:set([1016])
981:set([1035])
982:set([1032])
983:set([1038])
984:set([2, 1039])
985:set([1028])
986:set([1038])
987:set([1014])
988:set([1006])
989:set([1039])
990:set([3, 1039])
991:set([1016])
992:set([1016])
993:set([1016])
994:set([1028])
995:set([1016])
996:set([1033])
997:set([1006])
998:set([1017])
999:set([1033])
