1:set([1028, 9, 12, 13, 22, 27, 29])
2:set([0, 2, 3, 36, 8, 9, 1001])
3:set([0, 1001])
4:set([1017])
5:set([1033, 7])
6:set([1032, 3, 15])
7:set([1031])
8:set([1038])
9:set([8, 25, 34, 3, 1024])
10:set([1028])
11:set([1031, 36, 27, 12, 15])
12:set([8, 9, 1006])
13:set([1032, 2, 27, 36])
14:set([1001])
15:set([1024, 25, 34])
16:set([1024, 25, 34])
17:set([3, 1006])
18:set([8, 9, 1035])
19:set([1035])
20:set([1028])
21:set([8, 25, 34, 3, 1024])
22:set([1028])
23:set([0, 1001])
24:set([30, 1039])
25:set([1031])
26:set([1039])
27:set([1017])
28:set([1039])
29:set([1028])
30:set([0, 1033, 3, 4])
31:set([1006])
32:set([1028, 36])
33:set([1031])
34:set([1016])
35:set([1024, 34])
36:set([1001])
37:set([1014])
38:set([2, 27, 29, 1039])
39:set([1035])
40:set([1001])
41:set([1028])
42:set([1032])
43:set([2, 4, 1035, 12, 13, 15, 27, 29])
44:set([1028])
45:set([1024, 25, 34])
46:set([1035, 23, 5, 22, 13])
47:set([30, 1039])
48:set([12, 1014, 22])
49:set([1032])
50:set([1032])
51:set([1039])
52:set([1014])
53:set([1032])
54:set([1024, 25])
55:set([1039, 12, 29, 15])
56:set([1014])
57:set([1017])
58:set([1017, 3, 4])
59:set([1014])
60:set([1024])
61:set([1031])
62:set([1001])
63:set([1031])
64:set([13, 1014])
65:set([1035])
66:set([1031])
67:set([1038])
68:set([1031])
69:set([1032])
70:set([1028])
71:set([1039])
72:set([1038])
73:set([1031])
74:set([1028])
75:set([1038])
76:set([4, 5, 1031, 23, 27, 29])
77:set([1016])
78:set([1038])
79:set([1014])
80:set([1032])
81:set([1017])
82:set([1024])
83:set([1014])
84:set([1035])
85:set([1006])
86:set([1031])
87:set([1028])
88:set([1024, 34])
89:set([1039])
90:set([1014])
91:set([1031])
92:set([1039])
93:set([1024])
94:set([1033, 7])
95:set([1039, 12, 15])
96:set([1014])
97:set([1014])
98:set([1038])
99:set([1024])
100:set([1001])
101:set([1024, 34])
102:set([1039])
103:set([1038])
104:set([1033, 7])
105:set([1017])
106:set([1039])
107:set([1001])
108:set([1017])
109:set([30, 1039])
110:set([1028])
111:set([1006])
112:set([1024])
113:set([1006])
114:set([30, 1039])
115:set([1014])
116:set([1014])
117:set([30, 1039])
118:set([1017])
119:set([1001])
120:set([1035])
121:set([36, 2, 4, 29, 1028])
122:set([1033, 7])
123:set([1024])
124:set([30, 1039])
125:set([1024])
126:set([1014])
127:set([1033])
128:set([1033])
129:set([1017])
130:set([0, 1033, 13, 7])
131:set([1014])
132:set([1017])
133:set([1014])
134:set([1016])
135:set([1035, 2, 3, 36])
136:set([1038])
137:set([1033])
138:set([1006])
139:set([1006])
140:set([1033])
141:set([1039])
142:set([1006])
143:set([1016, 36])
144:set([12, 4, 29, 1006, 15])
145:set([1038])
146:set([1028])
147:set([1024, 25])
148:set([1028])
149:set([1032])
150:set([8, 9, 1039])
151:set([1017])
152:set([8, 9, 2, 1032])
153:set([1033])
154:set([1038])
155:set([1028])
156:set([1024])
157:set([1014])
158:set([1001])
159:set([1017])
160:set([12, 1014])
161:set([1033])
162:set([1016])
163:set([1024])
164:set([1017])
165:set([1006])
166:set([36, 2, 4, 29, 1028])
167:set([1024])
168:set([1001])
169:set([1033])
170:set([1014])
171:set([1033])
172:set([1039])
173:set([1014])
174:set([1032])
175:set([1001])
176:set([1031])
177:set([1035])
178:set([1039])
179:set([1033])
180:set([1014])
181:set([1039])
182:set([1016, 5, 22, 23])
183:set([1038])
184:set([1028])
185:set([1028])
186:set([1016])
187:set([1031])
188:set([1016])
189:set([1039])
190:set([1024])
191:set([1001])
192:set([0, 1001, 23, 5, 13])
193:set([1014])
194:set([1024, 9, 12, 25, 15])
195:set([1032])
196:set([1016])
197:set([1016])
198:set([1006])
199:set([1035])
200:set([1016])
201:set([1016])
202:set([1017])
203:set([1035])
204:set([1024])
205:set([1024])
206:set([1028])
207:set([1014])
208:set([1001])
209:set([1014])
210:set([1038])
211:set([30, 1039])
212:set([1031])
213:set([1035])
214:set([1031])
215:set([1033, 34, 7])
216:set([1017])
217:set([1039])
218:set([1016])
219:set([1028])
220:set([1017])
221:set([1016])
222:set([0, 1001, 27])
223:set([1038])
224:set([1038])
225:set([1031])
226:set([8, 9, 1006])
227:set([1039])
228:set([1001])
229:set([1039])
230:set([1038])
231:set([1001])
232:set([1024, 9, 25])
233:set([1032])
234:set([1031])
235:set([0, 1001])
236:set([1016])
237:set([1031])
238:set([1016])
239:set([1035])
240:set([1032])
241:set([1038])
242:set([1028])
243:set([1006])
244:set([1014])
245:set([1031])
246:set([1028])
247:set([1014])
248:set([1035])
249:set([1038])
250:set([1032])
251:set([1033])
252:set([1039])
253:set([1031])
254:set([1039])
255:set([1017])
256:set([1032])
257:set([1006])
258:set([1032])
259:set([1024])
260:set([1032])
261:set([1006])
262:set([1014])
263:set([1014])
264:set([1031])
265:set([30, 1039])
266:set([1001])
267:set([1031])
268:set([30, 1039])
269:set([1028])
270:set([1032])
271:set([1014, 15])
272:set([1035])
273:set([1017])
274:set([1031])
275:set([1031])
276:set([1035])
277:set([1001])
278:set([1017])
279:set([1039])
280:set([1032])
281:set([1024])
282:set([1001])
283:set([1006, 23, 5, 22, 13])
284:set([1028])
285:set([1001])
286:set([1028])
287:set([1035])
288:set([1016])
289:set([1031, 5, 22, 23])
290:set([1024, 34])
291:set([1035])
292:set([1038])
293:set([1016])
294:set([1016])
295:set([1035])
296:set([1033])
297:set([1024])
298:set([1014])
299:set([1031])
300:set([1006])
301:set([1006])
302:set([1014])
303:set([1006])
304:set([1014])
305:set([1033, 7])
306:set([1024])
307:set([1031])
308:set([1033])
309:set([1038, 5, 22, 23])
310:set([1038])
311:set([1035])
312:set([1001])
313:set([1017])
314:set([1035])
315:set([1038])
316:set([1006])
317:set([1035, 2, 27, 29])
318:set([1031])
319:set([1016])
320:set([1028])
321:set([1014])
322:set([1006])
323:set([1039])
324:set([1032])
325:set([1014])
326:set([1001])
327:set([1039])
328:set([1014, 15])
329:set([1031])
330:set([1028])
331:set([1017])
332:set([1038])
333:set([1024])
334:set([1033, 34, 7])
335:set([1032])
336:set([1035])
337:set([1031])
338:set([1014])
339:set([1038])
340:set([1033, 7])
341:set([1028])
342:set([1016])
343:set([1016])
344:set([1033])
345:set([1039])
346:set([1031])
347:set([1038])
348:set([1016])
349:set([1038])
350:set([1014])
351:set([1035])
352:set([1032])
353:set([1033])
354:set([0, 1001])
355:set([1031])
356:set([1006])
357:set([1001])
358:set([1035])
359:set([1038])
360:set([1039])
361:set([1024])
362:set([1016])
363:set([1033])
364:set([1031])
365:set([1016])
366:set([1035])
367:set([1014])
368:set([1039])
369:set([1017])
370:set([1031])
371:set([1031])
372:set([1035])
373:set([1006])
374:set([1024])
375:set([1035])
376:set([1033])
377:set([1035])
378:set([1032])
379:set([1033])
380:set([1017])
381:set([0, 1001])
382:set([1014])
383:set([1001])
384:set([1006])
385:set([1006])
386:set([1014])
387:set([1031])
388:set([1038])
389:set([1028])
390:set([1031])
391:set([30, 1039])
392:set([36, 1038])
393:set([1024])
394:set([1014])
395:set([1014])
396:set([1035])
397:set([1016])
398:set([1017, 13])
399:set([1032])
400:set([1001])
401:set([1032])
402:set([1028])
403:set([1039])
404:set([1031])
405:set([1032])
406:set([1014])
407:set([1024])
408:set([1033])
409:set([1006])
410:set([1031])
411:set([1038])
412:set([1006])
413:set([1024])
414:set([1006])
415:set([1028])
416:set([1028])
417:set([1016])
418:set([1028])
419:set([1001])
420:set([1031, 12, 29, 15])
421:set([1035])
422:set([1024])
423:set([1038])
424:set([1014])
425:set([1024])
426:set([1039])
427:set([1033])
428:set([1024])
429:set([1039])
430:set([1039])
431:set([1033])
432:set([1032])
433:set([1014])
434:set([1031])
435:set([1001])
436:set([1035])
437:set([1024])
438:set([1031])
439:set([1016])
440:set([1024])
441:set([1014])
442:set([1017])
443:set([1035])
444:set([1033])
445:set([1033])
446:set([1001])
447:set([1001])
448:set([1016])
449:set([1001])
450:set([1024])
451:set([1035])
452:set([1028])
453:set([1016])
454:set([1016])
455:set([1031])
456:set([1014])
457:set([12, 1014, 22])
458:set([1039])
459:set([1033])
460:set([1014])
461:set([1035])
462:set([1006])
463:set([1032])
464:set([1035])
465:set([1028])
466:set([1035])
467:set([1031])
468:set([1032])
469:set([1038])
470:set([1001])
471:set([1017])
472:set([1035])
473:set([1016])
474:set([1001])
475:set([1035])
476:set([1001])
477:set([1028])
478:set([1028])
479:set([1038])
480:set([1032, 3])
481:set([8, 25, 3, 1024])
482:set([1038])
483:set([1024])
484:set([8, 9, 1006])
485:set([1031])
486:set([1028])
487:set([1033])
488:set([1038])
489:set([1014])
490:set([1024])
491:set([1017])
492:set([1016])
493:set([1032])
494:set([1017])
495:set([1031])
496:set([1031])
497:set([1032])
498:set([1031])
499:set([1024])
500:set([1035])
501:set([1035])
502:set([1024])
503:set([1031])
504:set([1035])
505:set([1032])
506:set([1035])
507:set([1032])
508:set([1001])
509:set([1035, 15])
510:set([1031])
511:set([1014])
512:set([1033])
513:set([1039])
514:set([1032])
515:set([1001])
516:set([1001])
517:set([1016])
518:set([1006])
519:set([1014])
520:set([1033])
521:set([1014])
522:set([1001])
523:set([1016])
524:set([1039])
525:set([1039])
526:set([1001])
527:set([1014])
528:set([1039])
529:set([1017])
530:set([1035])
531:set([1038])
532:set([1038])
533:set([1039])
534:set([1024])
535:set([1035])
536:set([1032])
537:set([1031])
538:set([1033])
539:set([1038])
540:set([1031])
541:set([1001])
542:set([1031])
543:set([1039])
544:set([1001])
545:set([1014])
546:set([1014])
547:set([1017])
548:set([1039])
549:set([1033])
550:set([1033, 7])
551:set([1032])
552:set([13, 1038])
553:set([1024])
554:set([1035])
555:set([1016])
556:set([1031])
557:set([1006])
558:set([1024])
559:set([1033])
560:set([1038])
561:set([1024])
562:set([36, 1006])
563:set([1014])
564:set([1033])
565:set([1033])
566:set([1017])
567:set([1038])
568:set([1033])
569:set([1014])
570:set([1035])
571:set([1006])
572:set([1006])
573:set([1024])
574:set([1001])
575:set([1033])
576:set([1006])
577:set([1035])
578:set([1028])
579:set([1032])
580:set([1038])
581:set([1032])
582:set([1032])
583:set([1032])
584:set([1039])
585:set([1039])
586:set([1006])
587:set([1001])
588:set([1024])
589:set([1039])
590:set([1035])
591:set([1035])
592:set([1038])
593:set([1028])
594:set([1001])
595:set([1038])
596:set([1038])
597:set([1032])
598:set([1038])
599:set([1033])
600:set([1024])
601:set([1016])
602:set([1017])
603:set([1006])
604:set([1033])
605:set([1039])
606:set([1038])
607:set([1032])
608:set([1001])
609:set([1016])
610:set([3, 4, 1006])
611:set([1014])
612:set([1039])
613:set([1032])
614:set([1032])
615:set([1017])
616:set([1017])
617:set([1014])
618:set([1024])
619:set([1024])
620:set([1031])
621:set([1032])
622:set([1032])
623:set([1031])
624:set([1006])
625:set([1028])
626:set([1017])
627:set([36, 1039])
628:set([1006])
629:set([1032])
630:set([1016])
631:set([1032])
632:set([1038])
633:set([1006])
634:set([1033])
635:set([1035])
636:set([1031])
637:set([1001])
638:set([1006])
639:set([1039])
640:set([1038])
641:set([1031])
642:set([1035])
643:set([1028])
644:set([1033])
645:set([1033])
646:set([1039])
647:set([1016])
648:set([1017])
649:set([1033])
650:set([1017])
651:set([1032])
652:set([1001])
653:set([1028])
654:set([1016])
655:set([1031])
656:set([1035])
657:set([1033])
658:set([1006])
659:set([1028])
660:set([1031])
661:set([1014])
662:set([1033, 7])
663:set([1033])
664:set([1006])
665:set([1024])
666:set([1024])
667:set([1031])
668:set([1039, 23, 5, 30, 13])
669:set([1035])
670:set([1039])
671:set([1039])
672:set([1038])
673:set([1033])
674:set([1014])
675:set([1014])
676:set([1014])
677:set([1028])
678:set([1033])
679:set([1006])
680:set([0, 1001])
681:set([1024])
682:set([1033])
683:set([1024])
684:set([1001])
685:set([1024])
686:set([1016])
687:set([1001])
688:set([1035])
689:set([2, 1038, 5, 22, 23])
690:set([1016])
691:set([1016])
692:set([1031])
693:set([1039])
694:set([1017])
695:set([1016])
696:set([1032, 27])
697:set([1024])
698:set([1006])
699:set([1031])
700:set([1017])
701:set([1035])
702:set([1032])
703:set([1014])
704:set([1039])
705:set([1014])
706:set([1028])
707:set([1038])
708:set([1031])
709:set([1035])
710:set([1028])
711:set([1039])
712:set([1033])
713:set([1024])
714:set([1032])
715:set([1038])
716:set([1035])
717:set([1032])
718:set([1028])
719:set([1014])
720:set([1014])
721:set([1028])
722:set([1014])
723:set([1014])
724:set([1014])
725:set([1028])
726:set([1028])
727:set([1038])
728:set([1001])
729:set([1032])
730:set([1039])
731:set([1035])
732:set([8, 9, 4, 1031])
733:set([1001])
734:set([1017])
735:set([1024])
736:set([1017])
737:set([1024])
738:set([1006])
739:set([1031])
740:set([1001])
741:set([1039])
742:set([1001])
743:set([1039])
744:set([1014])
745:set([1001])
746:set([1038])
747:set([1031])
748:set([1024])
749:set([1031])
750:set([1031])
751:set([1035])
752:set([1017])
753:set([1032])
754:set([1006])
755:set([1024])
756:set([1016])
757:set([1033])
758:set([1006])
759:set([1031])
760:set([1038])
761:set([1016])
762:set([1006])
763:set([1028])
764:set([1024])
765:set([1031])
766:set([1039])
767:set([1014])
768:set([1017])
769:set([1016])
770:set([1039])
771:set([1017])
772:set([1039])
773:set([1038])
774:set([1035])
775:set([1016])
776:set([1028])
777:set([1016])
778:set([1035])
779:set([1039])
780:set([1024])
781:set([1014])
782:set([1028])
783:set([1038])
784:set([1014])
785:set([1032])
786:set([1017])
787:set([1001])
788:set([1039])
789:set([1028])
790:set([1024])
791:set([1033])
792:set([1028])
793:set([1016])
794:set([1017])
795:set([1016])
796:set([1033])
797:set([1028])
798:set([1033])
799:set([1017])
800:set([1006])
801:set([1028])
802:set([1033])
803:set([1031])
804:set([1017])
805:set([1016])
806:set([1017])
807:set([1006])
808:set([1038])
809:set([1024])
810:set([1035])
811:set([1016])
812:set([1039])
813:set([1017])
814:set([1016])
815:set([1032])
816:set([1016])
817:set([1017])
818:set([1031])
819:set([1024])
820:set([1033])
821:set([1014])
822:set([1014])
823:set([1014])
824:set([1028])
825:set([1006])
826:set([1006])
827:set([1028])
828:set([1031])
829:set([1006])
830:set([1001])
831:set([1028])
832:set([1032])
833:set([1024])
834:set([1033])
835:set([1033])
836:set([1024])
837:set([1028])
838:set([1014])
839:set([1038])
840:set([1032])
841:set([1006])
842:set([1028])
843:set([1033])
844:set([1033])
845:set([1031])
846:set([1032])
847:set([1038])
848:set([1006])
849:set([1028])
850:set([1024])
851:set([1017])
852:set([1006])
853:set([1001])
854:set([1035])
855:set([1014])
856:set([1006])
857:set([1033])
858:set([1038])
859:set([1016])
860:set([1014])
861:set([1038])
862:set([1024])
863:set([1001])
864:set([1031])
865:set([1017])
866:set([1039])
867:set([1017])
868:set([1035])
869:set([1038])
870:set([1035])
871:set([1014])
872:set([27, 1031])
873:set([1014])
874:set([1033])
875:set([1039])
876:set([1039])
877:set([1033])
878:set([1014])
879:set([1014])
880:set([1006])
881:set([1039])
882:set([1001])
883:set([1039])
884:set([1035])
885:set([1039])
886:set([1033])
887:set([1038])
888:set([1001])
889:set([1035])
890:set([1028])
891:set([1032])
892:set([1032])
893:set([1016])
894:set([1006])
895:set([1006])
896:set([1017])
897:set([1006])
898:set([1032])
899:set([1017])
900:set([1032])
901:set([1001])
902:set([1001])
903:set([1024])
904:set([1016])
905:set([1035])
906:set([1032])
907:set([1006])
908:set([1024])
909:set([1001])
910:set([1039])
911:set([1006])
912:set([1014])
913:set([1035])
914:set([1039])
915:set([1028])
916:set([1032, 23, 5, 22, 13])
917:set([1039])
918:set([1031])
919:set([1039])
920:set([1035])
921:set([1016])
922:set([1016])
923:set([1014])
924:set([1006])
925:set([1038])
926:set([1001])
927:set([1032])
928:set([1028])
929:set([1024])
930:set([27, 4, 29, 1006])
931:set([1028])
932:set([1031])
933:set([1024])
934:set([1031])
935:set([1014])
936:set([1031])
937:set([1032])
938:set([1028])
939:set([1031])
940:set([1014])
941:set([1024])
942:set([1038])
943:set([1024])
944:set([1033])
945:set([1014])
946:set([1006])
947:set([1001])
948:set([1014])
949:set([1024, 25])
950:set([1031])
951:set([1031])
952:set([1033])
953:set([1017])
954:set([1039])
955:set([1014])
956:set([1024])
957:set([1032])
958:set([1001])
959:set([1014])
960:set([1006])
961:set([1031])
962:set([1006])
963:set([1032])
964:set([1024])
965:set([1017])
966:set([1035])
967:set([1031])
968:set([1024])
969:set([1014])
970:set([1024])
971:set([1032])
972:set([1024])
973:set([1017])
974:set([1038])
975:set([1033])
976:set([1028])
977:set([1016])
978:set([2, 4, 5, 1035, 22, 23])
979:set([1032])
980:set([1014])
981:set([1001])
982:set([1032])
983:set([1028])
984:set([1031])
985:set([1028])
986:set([1038])
987:set([1016])
988:set([1016])
989:set([1028])
990:set([1031])
991:set([1016])
992:set([1038])
993:set([1024])
994:set([1031])
995:set([1035])
996:set([1017])
997:set([1032])
998:set([1035])
999:set([1014])
