1:set([3, 36, 1031, 9, 13, 27, 29])
2:set([3, 36, 13, 22, 1017, 27])
3:set([0, 4, 9, 12, 13, 15, 1001, 36, 29])
4:set([3, 36, 7, 9, 13, 22, 1033])
5:set([4, 5, 8, 9, 12, 15, 23, 1017, 27, 29])
6:set([3, 5, 1006, 29])
7:set([3, 5, 8, 9, 15, 22, 23, 1016, 29])
8:set([3, 5, 1014, 13])
9:set([1035, 36, 29, 15])
10:set([1024, 34, 8, 12, 15, 22, 23])
11:set([5, 8, 1001, 12, 13, 15, 22, 23, 29])
12:set([1024, 34, 8, 12, 13, 15, 23, 25])
13:set([27, 13, 30, 1039])
14:set([9, 1028, 13, 29])
15:set([8, 9, 5, 1006, 23])
16:set([2, 1035, 36])
17:set([1039, 3, 30, 22, 23])
18:set([1014, 3, 5, 22, 13])
19:set([0, 7, 9, 13, 1033, 22, 23])
20:set([1032, 2])
21:set([8, 1032, 3])
22:set([1017, 5])
23:set([3, 13, 1039, 22, 23, 30])
24:set([1014])
25:set([3, 4, 5, 22, 23, 1017, 27])
26:set([1033, 7])
27:set([1039, 36, 30, 22, 23])
28:set([4, 1006])
29:set([1035, 36])
30:set([1006, 22, 23])
31:set([1028, 13, 29])
32:set([1031])
33:set([36, 1031, 4, 15])
34:set([9, 4, 1006])
35:set([1035, 36])
36:set([0, 1001])
37:set([1031, 5, 22, 23])
38:set([29, 1006])
39:set([1024])
40:set([1024, 9, 25])
41:set([1035, 36])
42:set([13, 1039])
43:set([8, 9, 3, 1031])
44:set([1033, 7])
45:set([1035])
46:set([1033, 7])
47:set([1024, 9, 25, 29, 15])
48:set([0, 1001, 2, 3])
49:set([1001])
50:set([1016, 23])
51:set([1028, 13, 29])
52:set([1032, 2])
53:set([1017, 3, 5])
54:set([2, 1038])
55:set([1032])
56:set([1031])
57:set([1017])
58:set([1001])
59:set([1001, 12, 15])
60:set([1031])
61:set([1038])
62:set([2, 1039])
63:set([36, 1038])
64:set([1039, 5, 23])
65:set([1032])
66:set([36, 30, 1039])
67:set([1024, 34, 9, 12, 15, 23, 25, 29])
68:set([0, 1001])
69:set([1032, 2])
70:set([1016])
71:set([5, 1039])
72:set([1001, 3, 5])
73:set([1016])
74:set([1031])
75:set([12, 13, 1014, 15])
76:set([27, 1028])
77:set([1032])
78:set([1033])
79:set([1016])
80:set([1039, 13, 22, 23])
81:set([1001])
82:set([1016, 3])
83:set([9, 29, 1014, 15])
84:set([1038])
85:set([1033, 7])
86:set([1033, 7])
87:set([1006])
88:set([1001])
89:set([1033, 7])
90:set([1032])
91:set([1038])
92:set([1035])
93:set([1006])
94:set([1017, 4])
95:set([1006])
96:set([1039, 5, 23])
97:set([1024])
98:set([1033])
99:set([13, 1006])
100:set([1006])
101:set([1035])
102:set([1014])
103:set([0, 8, 1033, 7])
104:set([1016])
105:set([1006])
106:set([1016, 3])
107:set([4, 1031])
108:set([1032, 2])
109:set([1017])
110:set([1035])
111:set([1017])
112:set([1001])
113:set([1016])
114:set([27, 1028])
115:set([1031])
116:set([1014, 15])
117:set([1032])
118:set([9, 12, 13, 1014, 15])
119:set([1016, 3])
120:set([27, 1028, 22])
121:set([1014])
122:set([1016])
123:set([1032])
124:set([1032, 5, 23])
125:set([1035])
126:set([1024])
127:set([1032])
128:set([1032])
129:set([1014, 23])
130:set([1035])
131:set([1032])
132:set([1032])
133:set([3, 1031])
134:set([1035])
135:set([1016, 5, 23])
136:set([1006])
137:set([1031])
138:set([1033, 7])
139:set([1031])
140:set([1001])
141:set([1016])
142:set([1028])
143:set([1032])
144:set([30, 1039])
145:set([1006])
146:set([1038])
147:set([30, 1039])
148:set([0, 1001, 4])
149:set([1016])
150:set([3, 30, 1039])
151:set([1033, 7])
152:set([12, 1014])
153:set([1032])
154:set([0, 1001])
155:set([1038])
156:set([27, 1028, 22])
157:set([1032, 36])
158:set([8, 1033, 7])
159:set([2, 1038])
160:set([1028])
161:set([12, 5, 1014, 23])
162:set([1006])
163:set([1016])
164:set([1001])
165:set([27, 1028])
166:set([1001])
167:set([1035])
168:set([1031])
169:set([1017, 4])
170:set([1031])
171:set([1032])
172:set([1032])
173:set([1028, 29])
174:set([1016])
175:set([1028, 9, 13, 22, 27, 29])
176:set([1001])
177:set([1024, 34])
178:set([1017])
179:set([1032])
180:set([1016])
181:set([1032])
182:set([27, 1028])
183:set([1024, 9])
184:set([1017])
185:set([1031])
186:set([1031])
187:set([1033, 5, 7])
188:set([2, 1035, 36])
189:set([1006])
190:set([1028])
191:set([1031])
192:set([12, 1014])
193:set([1024, 34])
194:set([1031])
195:set([1038])
196:set([1006])
197:set([1001])
198:set([1001])
199:set([1017])
200:set([1032, 2])
201:set([0, 1033])
202:set([1006])
203:set([1032])
204:set([1035])
205:set([1038])
206:set([1016])
207:set([1014, 13, 22])
208:set([12, 1014, 22, 15])
209:set([4, 1031])
210:set([1031])
211:set([1016])
212:set([1039])
213:set([0, 1024, 34])
214:set([1016])
215:set([30, 1039])
216:set([1016])
217:set([1038])
218:set([1028, 22])
219:set([1031])
220:set([1033])
221:set([1017, 4])
222:set([8, 1033, 7])
223:set([1033])
224:set([1024, 25])
225:set([1006])
226:set([1028])
227:set([1024, 25, 34])
228:set([30, 1039, 5, 22, 23])
229:set([2, 1038])
230:set([1017, 4])
231:set([1024, 34])
232:set([1006])
233:set([1001])
234:set([1014])
235:set([1032])
236:set([1035])
237:set([1017])
238:set([12, 1014])
239:set([8, 9, 1024, 25])
240:set([1028])
241:set([1031])
242:set([1017])
243:set([5, 1039])
244:set([1017])
245:set([1006])
246:set([1039])
247:set([1017])
248:set([1038])
249:set([1033, 7])
250:set([1031])
251:set([1038])
252:set([1031])
253:set([1031])
254:set([1031])
255:set([1032])
256:set([1038])
257:set([1038])
258:set([1035, 36])
259:set([1006])
260:set([8, 1035])
261:set([1017])
262:set([1016])
263:set([1031])
264:set([1024])
265:set([1006])
266:set([1032])
267:set([1001])
268:set([1001])
269:set([1028])
270:set([1038])
271:set([1006])
272:set([1017])
273:set([0, 1001])
274:set([1024, 25, 34])
275:set([1016])
276:set([1001])
277:set([1038])
278:set([1033])
279:set([1031])
280:set([1016])
281:set([1024, 25, 34])
282:set([1031])
283:set([36, 1038])
284:set([1024])
285:set([1017])
286:set([1024])
287:set([1032])
288:set([1001])
289:set([1035])
290:set([1035, 36])
291:set([1016])
292:set([1032])
293:set([1032])
294:set([1024])
295:set([1033, 7])
296:set([1031])
297:set([1016])
298:set([1028])
299:set([1028])
300:set([1001])
301:set([1035, 36])
302:set([1014])
303:set([1038])
304:set([1033])
305:set([1014])
306:set([30, 1039])
307:set([1001])
308:set([1028])
309:set([1039])
310:set([1001])
311:set([1001])
312:set([27, 1028])
313:set([1024])
314:set([1001])
315:set([1035])
316:set([1032])
317:set([1024, 9, 34, 25, 15])
318:set([1032])
319:set([30, 1039])
320:set([8, 9, 34, 1024])
321:set([1035])
322:set([1033])
323:set([5, 1006])
324:set([1031])
325:set([1017, 4])
326:set([1014])
327:set([1038])
328:set([1032])
329:set([1016])
330:set([1031])
331:set([1024, 9, 25, 15])
332:set([1014])
333:set([1032])
334:set([2, 1038])
335:set([1035])
336:set([1039])
337:set([1039])
338:set([1024, 34])
339:set([1001])
340:set([8, 2, 1035, 4])
341:set([1001])
342:set([1035])
343:set([1001])
344:set([1001])
345:set([1014, 22, 23])
346:set([1039])
347:set([1039])
348:set([1001])
349:set([1032])
350:set([1017])
351:set([1032])
352:set([1017])
353:set([1006])
354:set([1017])
355:set([1033, 7])
356:set([3, 5, 1014, 15])
357:set([1001])
358:set([1038])
359:set([1031])
360:set([1001])
361:set([1028])
362:set([1024, 25])
363:set([1033, 7])
364:set([1033, 7])
365:set([1016])
366:set([1006])
367:set([1001])
368:set([1032])
369:set([1016])
370:set([1014])
371:set([1031])
372:set([1001])
373:set([1006])
374:set([1035])
375:set([1032])
376:set([1031])
377:set([27, 1028])
378:set([1039])
379:set([1032])
380:set([1035])
381:set([1038])
382:set([3, 30, 1039])
383:set([1016])
384:set([1017, 4])
385:set([1028, 29])
386:set([5, 1006])
387:set([1032])
388:set([1006])
389:set([1032])
390:set([1001])
391:set([1032])
392:set([30, 1039])
393:set([12, 1014])
394:set([1006])
395:set([1001])
396:set([1016])
397:set([1033])
398:set([1032])
399:set([1016])
400:set([13, 1014])
401:set([1024])
402:set([1017])
403:set([1028])
404:set([1032])
405:set([1006])
406:set([1031])
407:set([1014])
408:set([1006])
409:set([3, 30, 1039])
410:set([1031])
411:set([2, 1038])
412:set([1033, 34])
413:set([1038])
414:set([1033, 34, 7])
415:set([1039])
416:set([1033])
417:set([1031])
418:set([1031])
419:set([1039])
420:set([1006])
421:set([1031])
422:set([2, 1035, 36])
423:set([1033])
424:set([1024])
425:set([1035])
426:set([1035])
427:set([1033])
428:set([30, 1039])
429:set([1033, 34])
430:set([1033])
431:set([1006])
432:set([1017])
433:set([1033, 7])
434:set([1035, 36])
435:set([0, 1033, 7])
436:set([1024])
437:set([1028])
438:set([1006])
439:set([1016])
440:set([1001])
441:set([0, 1001])
442:set([1038])
443:set([1028])
444:set([1016])
445:set([1006])
446:set([1014])
447:set([1014])
448:set([1033])
449:set([1006])
450:set([1017])
451:set([1039])
452:set([1038])
453:set([8, 25, 1024])
454:set([1031])
455:set([1028])
456:set([1016])
457:set([1028])
458:set([1016])
459:set([1035])
460:set([1024, 25])
461:set([1031])
462:set([1031])
463:set([1001])
464:set([1033, 34])
465:set([1014])
466:set([1017])
467:set([12, 1014, 22])
468:set([1028])
469:set([1014])
470:set([1024, 34])
471:set([1033])
472:set([1035])
473:set([1031])
474:set([1016])
475:set([1035])
476:set([1038])
477:set([1035])
478:set([1001])
479:set([1001])
480:set([1031])
481:set([1033])
482:set([1028, 29])
483:set([0, 1001])
484:set([0, 8, 1033, 7])
485:set([1038])
486:set([1001])
487:set([30, 1039])
488:set([1028])
489:set([1017])
490:set([1032])
491:set([8, 1016])
492:set([1035])
493:set([1006])
494:set([1006])
495:set([8, 9, 25, 1024, 15])
496:set([1001])
497:set([1032])
498:set([1039])
499:set([1001])
500:set([1016])
501:set([12, 1014])
502:set([1001])
503:set([1039])
504:set([1006])
505:set([1016])
506:set([1024])
507:set([1017])
508:set([1014])
509:set([1024, 9, 25])
510:set([1014])
511:set([1001])
512:set([1001])
513:set([1016])
514:set([1031])
515:set([1039])
516:set([4, 1031])
517:set([1033])
518:set([1001])
519:set([1031])
520:set([1017])
521:set([1017])
522:set([1017])
523:set([1031])
524:set([1031])
525:set([3, 5, 1039])
526:set([13, 1014])
527:set([1016])
528:set([1031])
529:set([1035])
530:set([1038])
531:set([1033, 34, 7])
532:set([1001])
533:set([1032])
534:set([0, 1001])
535:set([1031])
536:set([1032])
537:set([1033])
538:set([1032])
539:set([27, 1028])
540:set([1038])
541:set([1035])
542:set([1006])
543:set([1006])
544:set([1014])
545:set([3, 30, 1039])
546:set([1024])
547:set([1035])
548:set([1017])
549:set([1014])
550:set([1038])
551:set([1017])
552:set([1001])
553:set([1016])
554:set([1028])
555:set([1038])
556:set([0, 1001])
557:set([8, 1016])
558:set([1017])
559:set([1032])
560:set([1017])
561:set([1028])
562:set([1017])
563:set([1024, 25, 34])
564:set([1016])
565:set([1014])
566:set([1039])
567:set([1039])
568:set([2, 1038])
569:set([1028])
570:set([1035])
571:set([1031])
572:set([27, 1028])
573:set([1016])
574:set([1001])
575:set([1017])
576:set([4, 1031])
577:set([1014, 15])
578:set([1035])
579:set([1017, 4])
580:set([0, 1033])
581:set([30, 1039])
582:set([1035])
583:set([1033])
584:set([1033])
585:set([1035])
586:set([1035])
587:set([1014])
588:set([1028])
589:set([1001])
590:set([1033])
591:set([1016])
592:set([1006])
593:set([1035])
594:set([1024, 25])
595:set([1038])
596:set([1028])
597:set([1038])
598:set([1032, 2])
599:set([12, 1014, 22, 15])
600:set([1035])
601:set([1017])
602:set([1024])
603:set([1017])
604:set([1031])
605:set([1001])
606:set([1028, 29])
607:set([12, 1014])
608:set([30, 1039])
609:set([1001])
610:set([1031])
611:set([27, 1028])
612:set([1035])
613:set([1035])
614:set([1032])
615:set([1024])
616:set([1028])
617:set([0, 1001])
618:set([1028, 29])
619:set([1031])
620:set([1031])
621:set([1016])
622:set([8, 1006])
623:set([1001])
624:set([1006])
625:set([1031])
626:set([1024])
627:set([30, 1039])
628:set([1039])
629:set([1001])
630:set([1014])
631:set([1031])
632:set([1014])
633:set([1035])
634:set([1001])
635:set([1016])
636:set([4, 1006])
637:set([12, 1014])
638:set([8, 9, 1024, 25])
639:set([1033, 7])
640:set([1032])
641:set([1017])
642:set([1024, 34])
643:set([1039])
644:set([1035])
645:set([1028])
646:set([1017])
647:set([1032])
648:set([8, 9, 1024])
649:set([1031])
650:set([1017])
651:set([1039])
652:set([1032])
653:set([1032])
654:set([1006])
655:set([1017])
656:set([1006])
657:set([1017])
658:set([1028])
659:set([1001])
660:set([1032])
661:set([1032])
662:set([1001])
663:set([1017, 4])
664:set([1038])
665:set([1024, 25])
666:set([13, 1014])
667:set([2, 1038])
668:set([8, 25, 1024, 15])
669:set([1017])
670:set([5, 1014, 23])
671:set([1028, 29])
672:set([1031])
673:set([1028])
674:set([1039])
675:set([1031])
676:set([1001])
677:set([1039])
678:set([1033, 7])
679:set([1035])
680:set([1035])
681:set([1001])
682:set([1038])
683:set([29, 1031])
684:set([1038])
685:set([1017])
686:set([1014])
687:set([8, 1024])
688:set([1033])
689:set([1001])
690:set([1033])
691:set([12, 1014, 15])
692:set([1038])
693:set([1035, 36])
694:set([1014])
695:set([1006])
696:set([1017])
697:set([1038])
698:set([1028])
699:set([2, 1039])
700:set([1032])
701:set([1014])
702:set([1038])
703:set([1039])
704:set([1031])
705:set([2, 1038])
706:set([0, 1001])
707:set([1001])
708:set([1028])
709:set([1016])
710:set([27, 1028])
711:set([1035])
712:set([1031])
713:set([1006])
714:set([1028])
715:set([1001])
716:set([1014])
717:set([1001])
718:set([1039])
719:set([1006])
720:set([1035])
721:set([1039])
722:set([1033])
723:set([1031])
724:set([1038])
725:set([1032])
726:set([1017])
727:set([1032])
728:set([1033])
729:set([1028])
730:set([1032])
731:set([1016])
732:set([1033, 34])
733:set([1006])
734:set([1038])
735:set([1014])
736:set([0, 1033])
737:set([1028, 29])
738:set([1017])
739:set([1001])
740:set([1039])
741:set([1016])
742:set([1024])
743:set([3, 4, 1031])
744:set([1033])
745:set([2, 1035])
746:set([1035])
747:set([1016])
748:set([1006])
749:set([1035])
750:set([1017])
751:set([1038])
752:set([1035])
753:set([1017])
754:set([1024, 34])
755:set([4, 1031])
756:set([1028])
757:set([1016])
758:set([1016])
759:set([1001])
760:set([1016])
761:set([1006])
762:set([1017])
763:set([1006])
764:set([1039])
765:set([4, 1006])
766:set([1038])
767:set([27, 1028])
768:set([1033])
769:set([1032])
770:set([1039])
771:set([1035])
772:set([1038])
773:set([1017])
774:set([0, 1033])
775:set([1016])
776:set([1032])
777:set([1035])
778:set([1033])
779:set([1039])
780:set([27, 1028, 29])
781:set([1032])
782:set([1017])
783:set([1039])
784:set([1024])
785:set([1035, 36])
786:set([30, 1039])
787:set([1017])
788:set([1033])
789:set([1001])
790:set([1017])
791:set([1016])
792:set([1006])
793:set([1033, 34])
794:set([1032])
795:set([1035])
796:set([1035])
797:set([1031])
798:set([1014])
799:set([1038])
800:set([12, 1014, 22, 23])
801:set([1031])
802:set([1038])
803:set([1038])
804:set([1017])
805:set([1014, 15])
806:set([1035])
807:set([1039])
808:set([1024])
809:set([12, 1014])
810:set([1001])
811:set([1039])
812:set([1033])
813:set([1028])
814:set([1024, 25])
815:set([1014])
816:set([1001])
817:set([1035])
818:set([27, 1028])
819:set([1006])
820:set([1039])
821:set([30, 1039])
822:set([1033])
823:set([1001])
824:set([1006])
825:set([1033])
826:set([1014])
827:set([12, 1014, 22, 15])
828:set([1032])
829:set([1028])
830:set([1017])
831:set([1028])
832:set([1001])
833:set([27, 1028])
834:set([27, 1028])
835:set([1028])
836:set([0, 1033])
837:set([27, 1028])
838:set([1014])
839:set([1033])
840:set([1038])
841:set([1028])
842:set([1017])
843:set([1039])
844:set([1033])
845:set([1024, 25])
846:set([1033])
847:set([1033])
848:set([1024])
849:set([1016])
850:set([1032])
851:set([1035])
852:set([1014])
853:set([30, 1039])
854:set([1039])
855:set([1033])
856:set([1033])
857:set([13, 1014])
858:set([1028])
859:set([1024, 9, 25])
860:set([1035, 36])
861:set([1006])
862:set([1017])
863:set([1024])
864:set([1016])
865:set([1038])
866:set([1028])
867:set([1006])
868:set([30, 1039])
869:set([1035])
870:set([1016, 4])
871:set([1035])
872:set([1032])
873:set([1031])
874:set([1031])
875:set([1035, 36])
876:set([1032])
877:set([1006])
878:set([1028])
879:set([1033])
880:set([1031])
881:set([1032])
882:set([1024])
883:set([1039])
884:set([1014])
885:set([1014])
886:set([1024])
887:set([1031])
888:set([1032])
889:set([1017])
890:set([0, 1033])
891:set([27, 1028])
892:set([1033])
893:set([1006])
894:set([1038])
895:set([1017])
896:set([1016])
897:set([1038])
898:set([1017])
899:set([1031])
900:set([27, 1028])
901:set([1031])
902:set([1016])
903:set([1001])
904:set([1031])
905:set([1032])
906:set([1001])
907:set([1028, 29])
908:set([1001])
909:set([12, 1014])
910:set([1024, 25])
911:set([1032])
912:set([1024])
913:set([2, 1035])
914:set([1017])
915:set([1016])
916:set([12, 1014])
917:set([1038])
918:set([1032, 2])
919:set([1024])
920:set([1032])
921:set([13, 1014])
922:set([1038])
923:set([1017])
924:set([1017])
925:set([1014])
926:set([1016])
927:set([4, 1006])
928:set([8, 1024])
929:set([1028])
930:set([1016])
931:set([1039])
932:set([1032])
933:set([1028, 29])
934:set([1006])
935:set([1038])
936:set([1024])
937:set([1001])
938:set([1038])
939:set([1017])
940:set([1006])
941:set([1016])
942:set([1033, 34])
943:set([1032])
944:set([1032])
945:set([1006])
946:set([1024])
947:set([1028])
948:set([1028])
949:set([1016])
950:set([1006])
951:set([1038])
952:set([1032])
953:set([30, 1039])
954:set([1016])
955:set([1031])
956:set([1031])
957:set([1032])
958:set([1001])
959:set([1014])
960:set([1039])
961:set([0, 1033])
962:set([1033])
963:set([1031])
964:set([1031])
965:set([1001])
966:set([1028])
967:set([1006])
968:set([2, 1038])
969:set([1038])
970:set([0, 1033])
971:set([1028])
972:set([1024, 25])
973:set([1032])
974:set([1001])
975:set([1016])
976:set([1035])
977:set([1035])
978:set([1032])
979:set([1014])
980:set([1024])
981:set([1033, 34])
982:set([1017])
983:set([1038])
984:set([1031])
985:set([1035, 36])
986:set([1006])
987:set([1039])
988:set([1031])
989:set([1017])
990:set([1014])
991:set([1001])
992:set([1031])
993:set([1014])
994:set([1031])
995:set([1017])
996:set([1024])
997:set([1001])
998:set([1032, 2])
999:set([1024])
