1:set([3, 36, 9, 12, 13, 1039, 22, 27])
2:set([3, 36, 1014, 9, 12, 13, 22, 27])
3:set([3, 36, 8, 9, 12, 13, 22, 1017, 27])
4:set([3, 36, 9, 13, 1016, 27])
5:set([3, 36, 1032, 12, 13, 15, 22, 23, 27])
6:set([3, 36, 5, 1031, 12, 13, 15, 22, 23, 27])
7:set([1032, 3, 36, 5, 29])
8:set([36, 5, 9, 13, 15, 1001, 22, 23, 27, 29])
9:set([1024, 3, 36, 9, 13, 15, 29])
10:set([3, 36, 5, 8, 9, 13, 1006, 15, 22, 23])
11:set([3, 8, 9, 12, 13, 15, 23, 1017, 27])
12:set([4, 5, 8, 9, 13, 22, 23, 1017, 29])
13:set([3, 36, 8, 9, 13, 15, 22, 23, 1016, 29])
14:set([1039, 3, 36, 22, 23])
15:set([3, 36, 5, 13, 1039, 30])
16:set([9, 12, 13, 15, 22, 23, 1016])
17:set([3, 5, 12, 13, 15, 22, 1014, 29])
18:set([2, 3, 4, 8, 9, 13, 1039, 36, 30])
19:set([1038, 29, 13, 22, 15])
20:set([2, 4, 5, 1035, 12, 13, 15, 23, 27, 29])
21:set([36, 29, 1038, 15])
22:set([36, 5, 1035, 13, 22, 23])
23:set([2, 36, 5, 1032, 15, 4, 29])
24:set([3, 5, 30, 1039])
25:set([1024, 34, 8, 9, 12, 13, 15, 22, 23])
26:set([2, 4, 29, 1038, 15])
27:set([3, 4, 5, 13, 1006, 22, 23, 29])
28:set([1001])
29:set([8, 9, 29, 1006, 15])
30:set([2, 36, 1038])
31:set([9, 27, 5, 1014, 13])
32:set([1017, 3])
33:set([2, 1035, 36, 5, 23])
34:set([1033, 23, 22, 7])
35:set([2, 1035, 36])
36:set([1017, 4])
37:set([5, 12, 1006, 15, 23, 27, 29])
38:set([0, 1001, 2])
39:set([3, 30, 1039])
40:set([8, 1017, 4, 22, 23])
41:set([1031])
42:set([4, 1006])
43:set([36, 12, 29, 1006, 15])
44:set([8, 3, 1006])
45:set([1001, 27])
46:set([0, 3, 5, 7, 1033, 23])
47:set([9, 1028, 13, 22, 29])
48:set([1031])
49:set([2, 1031, 13, 15, 22, 23, 27, 29])
50:set([2, 3, 4, 1038])
51:set([12, 13, 1014])
52:set([1014, 3, 12, 5, 22])
53:set([8, 1024, 34, 15])
54:set([2, 36, 1038])
55:set([29, 12, 13, 1014, 15])
56:set([0, 36, 7, 8, 9, 1033])
57:set([0, 1001])
58:set([3, 5, 1006])
59:set([5, 1035, 22, 23, 27, 29])
60:set([1035, 5, 22, 23])
61:set([1031, 4, 5, 22, 23])
62:set([1016])
63:set([0, 1033, 2, 13, 7])
64:set([0, 3, 7, 8, 1033, 29])
65:set([3, 5, 30, 1039])
66:set([27, 29, 1006, 15])
67:set([1028, 29])
68:set([2, 1039, 5, 30, 23])
69:set([1032])
70:set([1016, 4])
71:set([0, 8, 1033, 7])
72:set([1031, 5, 23])
73:set([2, 1035, 36])
74:set([1016, 27, 4, 15])
75:set([1017, 29])
76:set([1033, 7])
77:set([5, 1031])
78:set([1039, 30, 23])
79:set([1016, 4, 15])
80:set([12, 1006, 15])
81:set([0, 1001, 4])
82:set([8, 1024, 34, 15])
83:set([1032, 2])
84:set([2, 1035, 36])
85:set([12, 29, 1014, 15])
86:set([0, 1001])
87:set([0, 1033, 4, 7])
88:set([1031])
89:set([1024, 34, 8, 9, 15, 25])
90:set([1017])
91:set([8, 36, 1038])
92:set([27, 3, 5, 1014, 23])
93:set([9, 27, 5, 1014, 23])
94:set([12, 1014, 23])
95:set([1039, 3, 5, 30, 23])
96:set([5, 1031])
97:set([2, 1038])
98:set([1006, 13, 22, 23])
99:set([8, 1035, 36])
100:set([1016, 4, 5, 22, 23])
101:set([1006])
102:set([0, 1024, 34, 8, 9, 25])
103:set([1016])
104:set([1017, 4])
105:set([2, 1038])
106:set([1038])
107:set([36, 1038])
108:set([1035, 36])
109:set([1016, 3, 4])
110:set([1016, 22, 23])
111:set([1016])
112:set([5, 1014, 23])
113:set([1006])
114:set([3, 30, 1039])
115:set([1032, 2, 4])
116:set([1016, 4])
117:set([1032, 2])
118:set([5, 1014, 13])
119:set([1035])
120:set([1006])
121:set([1031])
122:set([2, 1038])
123:set([2, 1039, 5, 23])
124:set([8, 4, 1006])
125:set([4, 29, 1031])
126:set([5, 1031])
127:set([1031])
128:set([1014, 12, 13, 22])
129:set([1001])
130:set([1032, 2])
131:set([3, 5, 30, 1039])
132:set([1017])
133:set([1006])
134:set([1001])
135:set([9, 1028])
136:set([1001])
137:set([8, 1016])
138:set([1024, 9, 34, 12, 15])
139:set([1017])
140:set([1035])
141:set([5, 1038])
142:set([1001])
143:set([0, 1001, 36])
144:set([30, 1039])
145:set([1024, 25, 34])
146:set([0, 1001])
147:set([8, 1033, 7])
148:set([0, 1033, 7])
149:set([1014])
150:set([1032])
151:set([1017, 5, 23])
152:set([27, 1028, 29])
153:set([1024, 34, 8, 9, 12, 15, 25])
154:set([1038])
155:set([1038])
156:set([1006])
157:set([1032, 2])
158:set([13, 1014])
159:set([8, 1016])
160:set([1032])
161:set([1017])
162:set([0, 1001, 4])
163:set([1035])
164:set([8, 9, 34, 1024, 25])
165:set([1016])
166:set([1035])
167:set([12, 1014, 22, 15])
168:set([0, 1001])
169:set([1038])
170:set([27, 1028, 29])
171:set([2, 1035])
172:set([3, 30, 1039])
173:set([1024, 9, 34, 25])
174:set([27, 12, 1014, 22, 15])
175:set([8, 1033, 7])
176:set([1039, 36, 22, 23])
177:set([1024, 25, 34])
178:set([1032])
179:set([8, 1033, 7])
180:set([1032])
181:set([1006])
182:set([1039])
183:set([1033, 7])
184:set([1031])
185:set([1016, 5, 23])
186:set([1032])
187:set([0, 1024, 34, 8, 22, 23, 25])
188:set([1038])
189:set([1016])
190:set([1006])
191:set([1035])
192:set([1035, 36])
193:set([1016])
194:set([1032])
195:set([1031, 5, 23])
196:set([30, 1039])
197:set([8, 1031])
198:set([1017])
199:set([3, 5, 30, 1039])
200:set([1035, 36])
201:set([1016])
202:set([1039])
203:set([1032, 2])
204:set([1032, 2])
205:set([1028])
206:set([8, 9, 25, 1024, 15])
207:set([1024, 9, 34, 25])
208:set([1024, 9, 25])
209:set([1038])
210:set([1032])
211:set([1031])
212:set([1016])
213:set([1035, 36])
214:set([1016])
215:set([27, 1028])
216:set([1035])
217:set([30, 1039])
218:set([1028])
219:set([1001])
220:set([1038])
221:set([1039, 23, 5, 22, 13])
222:set([1033, 7])
223:set([9, 1033, 7])
224:set([1024, 25, 34])
225:set([1016])
226:set([1031])
227:set([30, 1039])
228:set([1031])
229:set([3, 1031])
230:set([1017])
231:set([1031])
232:set([1033, 7])
233:set([1017])
234:set([9, 23, 1014, 15])
235:set([27, 1028])
236:set([27, 1028])
237:set([1024, 25])
238:set([1014, 15])
239:set([1032, 2])
240:set([1014])
241:set([1016])
242:set([3, 30, 1039])
243:set([1028])
244:set([1017])
245:set([1028])
246:set([1035])
247:set([1038])
248:set([1001])
249:set([1024, 34])
250:set([1028])
251:set([0, 1033, 7])
252:set([1016])
253:set([1006])
254:set([1016])
255:set([1035])
256:set([1031])
257:set([1033, 7])
258:set([1024, 34])
259:set([1031])
260:set([1006])
261:set([0, 1033, 7])
262:set([3, 30, 1039])
263:set([1038])
264:set([1032])
265:set([27, 1028, 29])
266:set([1035])
267:set([1031])
268:set([27, 1028, 29])
269:set([1014])
270:set([0, 1001])
271:set([0, 1001])
272:set([27, 1028])
273:set([1038])
274:set([27, 1028, 29])
275:set([1016])
276:set([1032])
277:set([27, 1028])
278:set([2, 1038])
279:set([0, 1033, 3, 7])
280:set([1035, 36])
281:set([1038])
282:set([1006])
283:set([1006])
284:set([29, 1006])
285:set([12, 1014])
286:set([1035])
287:set([1038])
288:set([12, 1014, 22])
289:set([1017])
290:set([1017])
291:set([12, 1014, 15])
292:set([27, 1028])
293:set([1033, 7])
294:set([1038])
295:set([1016, 4])
296:set([1016])
297:set([1038])
298:set([13, 1014])
299:set([1032, 2])
300:set([1006])
301:set([1028, 29])
302:set([1039])
303:set([1032])
304:set([1031])
305:set([1033, 7])
306:set([0, 1033, 23, 7])
307:set([1006])
308:set([1014])
309:set([1017])
310:set([1014])
311:set([1017])
312:set([0, 1001])
313:set([1016])
314:set([0, 1001])
315:set([8, 1006])
316:set([1001])
317:set([4, 1006])
318:set([1032])
319:set([1035])
320:set([1035])
321:set([2, 1038])
322:set([1016])
323:set([1032])
324:set([1014])
325:set([1017])
326:set([1024, 9, 25])
327:set([8, 25, 34, 1024])
328:set([1035])
329:set([30, 1039])
330:set([4, 1006])
331:set([1001])
332:set([3, 30, 1039])
333:set([1035])
334:set([1024, 25, 34])
335:set([1031])
336:set([0, 1001])
337:set([1016])
338:set([1016])
339:set([1038])
340:set([1016])
341:set([1006])
342:set([1001])
343:set([1035])
344:set([1028, 13])
345:set([0, 1001])
346:set([1035])
347:set([12, 1014, 22])
348:set([1028, 29])
349:set([1017, 4])
350:set([1024, 9, 34, 25])
351:set([12, 1014])
352:set([1039])
353:set([1016])
354:set([1024])
355:set([1017])
356:set([1016])
357:set([0, 1001])
358:set([1032])
359:set([1038])
360:set([1014])
361:set([1001])
362:set([0, 1001])
363:set([1006])
364:set([27, 1028, 22])
365:set([1014])
366:set([1014])
367:set([1039])
368:set([1033, 7])
369:set([1016])
370:set([8, 1033, 7])
371:set([1017])
372:set([1028])
373:set([1006])
374:set([1014])
375:set([8, 1024, 34])
376:set([1024, 34])
377:set([1032])
378:set([1028])
379:set([1031])
380:set([1028])
381:set([1031])
382:set([1017])
383:set([1006])
384:set([30, 1039])
385:set([1031])
386:set([1001])
387:set([1017])
388:set([1001])
389:set([1038])
390:set([1017])
391:set([1006])
392:set([2, 1038])
393:set([1016])
394:set([1031])
395:set([1033])
396:set([1014])
397:set([1017])
398:set([1033, 7])
399:set([1033, 7])
400:set([1038])
401:set([1033])
402:set([2, 1035, 29])
403:set([1039])
404:set([1006])
405:set([1024, 9, 25])
406:set([1006])
407:set([12, 1014, 22])
408:set([1001])
409:set([0, 1001])
410:set([1038])
411:set([1032])
412:set([1016])
413:set([1031])
414:set([1014, 15])
415:set([1035])
416:set([1039])
417:set([2, 36, 1038])
418:set([1016])
419:set([1001])
420:set([1014])
421:set([1035])
422:set([1016])
423:set([1014])
424:set([1024, 34])
425:set([1031])
426:set([1006])
427:set([1024, 34])
428:set([1014])
429:set([1017])
430:set([1001])
431:set([1017])
432:set([1035])
433:set([1017])
434:set([1017])
435:set([1024])
436:set([1017, 4])
437:set([12, 1014, 22])
438:set([1032])
439:set([1038])
440:set([1038])
441:set([1017])
442:set([1032])
443:set([1031])
444:set([4, 1006])
445:set([1001])
446:set([1001])
447:set([1001])
448:set([1017])
449:set([1016])
450:set([1006])
451:set([1039])
452:set([1016])
453:set([1014])
454:set([1035])
455:set([1035, 36])
456:set([1035])
457:set([1024, 9, 25])
458:set([1033, 7])
459:set([5, 1031])
460:set([1039])
461:set([1035])
462:set([1033, 7])
463:set([1024, 9, 29, 25])
464:set([1017])
465:set([1024, 25])
466:set([1017])
467:set([1038])
468:set([1032])
469:set([1017])
470:set([1006])
471:set([1014])
472:set([1032])
473:set([0, 1001])
474:set([1014])
475:set([1028])
476:set([2, 1038])
477:set([12, 1014, 15])
478:set([1014])
479:set([1031])
480:set([12, 1014])
481:set([9, 1014, 15])
482:set([1031])
483:set([1014])
484:set([1032])
485:set([1038])
486:set([30, 1039])
487:set([1031])
488:set([1028])
489:set([1017])
490:set([1001])
491:set([1014])
492:set([1032])
493:set([1014])
494:set([1035, 36])
495:set([1024])
496:set([1016, 4])
497:set([1038])
498:set([1016])
499:set([1031])
500:set([1001])
501:set([1039])
502:set([1006])
503:set([1014, 15])
504:set([1016])
505:set([4, 1006])
506:set([1033])
507:set([1035])
508:set([1016])
509:set([1033, 7])
510:set([1031])
511:set([30, 1039])
512:set([1031])
513:set([1017])
514:set([3, 30, 1039])
515:set([1006])
516:set([1006])
517:set([1006])
518:set([12, 1014])
519:set([1017, 4])
520:set([36, 1038])
521:set([1024, 9, 25])
522:set([1024])
523:set([30, 1039])
524:set([1017])
525:set([1028])
526:set([27, 1028, 22])
527:set([1035])
528:set([1032])
529:set([27, 1028])
530:set([1039])
531:set([1035])
532:set([1001])
533:set([12, 1014])
534:set([1024])
535:set([1032])
536:set([1032])
537:set([1024])
538:set([1031])
539:set([1031])
540:set([1014])
541:set([0, 1033])
542:set([4, 1031])
543:set([1032])
544:set([1017])
545:set([1017])
546:set([27, 1028])
547:set([1038])
548:set([3, 4, 1006])
549:set([1016])
550:set([1035])
551:set([1033, 34, 7])
552:set([27, 1028, 22])
553:set([0, 25, 34, 1024])
554:set([1024])
555:set([1035])
556:set([1014])
557:set([1028])
558:set([1001])
559:set([1031])
560:set([1032])
561:set([1032])
562:set([1032])
563:set([1016])
564:set([0, 1001])
565:set([1032])
566:set([1016])
567:set([1032])
568:set([1031])
569:set([1014])
570:set([1014])
571:set([1017])
572:set([4, 1031])
573:set([1014])
574:set([1032])
575:set([1035])
576:set([1038])
577:set([1038])
578:set([27, 1028])
579:set([1017])
580:set([27, 1028, 22])
581:set([1033])
582:set([1038])
583:set([1031])
584:set([1024])
585:set([1024, 34])
586:set([1001])
587:set([1028, 29])
588:set([1006])
589:set([1035])
590:set([1001])
591:set([1032])
592:set([1017])
593:set([30, 1039])
594:set([1024, 25])
595:set([1006])
596:set([1032])
597:set([1031])
598:set([1024, 34])
599:set([1032])
600:set([1028])
601:set([1006])
602:set([1016])
603:set([1031])
604:set([1031])
605:set([1014])
606:set([1039])
607:set([1016, 27, 4, 29])
608:set([1006])
609:set([1035])
610:set([1032])
611:set([13, 1014])
612:set([1031])
613:set([1035])
614:set([30, 1039])
615:set([1024, 25])
616:set([1017])
617:set([1024])
618:set([1017])
619:set([1031])
620:set([1016])
621:set([1016])
622:set([1033])
623:set([13, 1014])
624:set([1031])
625:set([1033])
626:set([1028])
627:set([1035, 36])
628:set([13, 1014])
629:set([1028])
630:set([1038])
631:set([1028])
632:set([1001])
633:set([1032])
634:set([1014])
635:set([1031])
636:set([1006])
637:set([1016])
638:set([1006])
639:set([1033])
640:set([13, 1014])
641:set([1032])
642:set([30, 1039])
643:set([1039])
644:set([1006])
645:set([1028])
646:set([1006])
647:set([27, 1028, 29])
648:set([1024, 25, 34])
649:set([1017])
650:set([1032])
651:set([1017])
652:set([8, 1033, 7])
653:set([1035])
654:set([2, 1038])
655:set([1001])
656:set([12, 1014])
657:set([1014])
658:set([1038])
659:set([1017])
660:set([1035])
661:set([1016, 29])
662:set([1006])
663:set([1028])
664:set([13, 1014])
665:set([1001])
666:set([1031])
667:set([1035, 36])
668:set([1017])
669:set([1014, 12, 13, 22, 15])
670:set([1033, 7])
671:set([1035])
672:set([1031])
673:set([1038])
674:set([8, 1033, 7])
675:set([30, 1039])
676:set([1014])
677:set([1001])
678:set([1024])
679:set([1035])
680:set([1028])
681:set([1031])
682:set([1028])
683:set([1014])
684:set([1017])
685:set([1032])
686:set([1028, 29])
687:set([1001])
688:set([1024, 25])
689:set([1032])
690:set([1024, 25, 34])
691:set([1014])
692:set([1024, 15])
693:set([1006])
694:set([1033, 34])
695:set([30, 1039])
696:set([1017])
697:set([1035])
698:set([1031])
699:set([1001])
700:set([1024])
701:set([1039])
702:set([1028, 29])
703:set([1033])
704:set([1014])
705:set([1024, 9, 25])
706:set([1032])
707:set([1014])
708:set([8, 25, 1024])
709:set([1017])
710:set([1006])
711:set([1016])
712:set([1016])
713:set([27, 1028])
714:set([1031])
715:set([27, 1028])
716:set([1028])
717:set([1016])
718:set([1038])
719:set([1006])
720:set([1006])
721:set([1028])
722:set([1038])
723:set([1038])
724:set([1039])
725:set([0, 1033, 7])
726:set([1031])
727:set([1032])
728:set([1038])
729:set([1006])
730:set([1039])
731:set([30, 1039])
732:set([1014])
733:set([1031])
734:set([1017, 4])
735:set([1001])
736:set([1035])
737:set([1006])
738:set([1032])
739:set([1028])
740:set([1033, 7])
741:set([1016])
742:set([1017])
743:set([8, 1033, 7])
744:set([1032])
745:set([1016])
746:set([1017])
747:set([1017])
748:set([1017, 4])
749:set([1006])
750:set([1017])
751:set([1016])
752:set([12, 1014])
753:set([1033, 34])
754:set([1038])
755:set([1016])
756:set([1038])
757:set([1035])
758:set([1032])
759:set([1035])
760:set([1014])
761:set([1017])
762:set([1035])
763:set([13, 1014])
764:set([1017])
765:set([1024, 9, 25])
766:set([8, 1033, 7])
767:set([0, 1033, 7])
768:set([1006])
769:set([30, 1039])
770:set([1006])
771:set([4, 1006])
772:set([1039])
773:set([1024, 9, 34, 29, 25])
774:set([1001])
775:set([1038])
776:set([1006])
777:set([1014])
778:set([1016])
779:set([1006])
780:set([1014])
781:set([1016])
782:set([1035])
783:set([1024, 34])
784:set([1006])
785:set([1031])
786:set([12, 1014])
787:set([1001])
788:set([30, 1039])
789:set([1035])
790:set([1028])
791:set([1017])
792:set([0, 1001])
793:set([0, 1033])
794:set([1039])
795:set([1031])
796:set([8, 25, 1024])
797:set([1038])
798:set([1014])
799:set([3, 30, 1039])
800:set([30, 1039])
801:set([1016])
802:set([1038])
803:set([2, 1038])
804:set([1031])
805:set([8, 1006])
806:set([1017])
807:set([1016])
808:set([1001])
809:set([1001])
810:set([1031])
811:set([1032])
812:set([1039])
813:set([1028])
814:set([1032])
815:set([1033, 34])
816:set([1038])
817:set([1006])
818:set([30, 1039])
819:set([1024])
820:set([1038])
821:set([1024, 34])
822:set([1031])
823:set([1038])
824:set([2, 1038])
825:set([1024, 25, 34])
826:set([1031])
827:set([1032])
828:set([4, 1006])
829:set([1038])
830:set([1016])
831:set([1024])
832:set([1038])
833:set([1038])
834:set([1024])
835:set([1001])
836:set([0, 1001])
837:set([1028])
838:set([1028])
839:set([1014])
840:set([1033])
841:set([1033, 34])
842:set([1038])
843:set([1016])
844:set([1006])
845:set([1031])
846:set([1017])
847:set([1016])
848:set([1001])
849:set([1032, 36])
850:set([2, 1038])
851:set([1016])
852:set([1014])
853:set([1001])
854:set([30, 1039])
855:set([1038])
856:set([1031])
857:set([1024, 25])
858:set([1017])
859:set([1032])
860:set([1032])
861:set([1035])
862:set([1032])
863:set([1032, 2])
864:set([1024, 25])
865:set([1035])
866:set([1001])
867:set([1016])
868:set([1035])
869:set([1024, 9, 25])
870:set([13, 1014])
871:set([1024, 25, 34])
872:set([1017])
873:set([1014])
874:set([30, 1039])
875:set([12, 1014])
876:set([1014])
877:set([1016])
878:set([1016])
879:set([1001])
880:set([1031])
881:set([30, 1039])
882:set([1028])
883:set([0, 1001, 4])
884:set([1016])
885:set([1001])
886:set([1014])
887:set([1014])
888:set([1038])
889:set([1017])
890:set([1032])
891:set([1014])
892:set([1028])
893:set([1032])
894:set([1016])
895:set([1031])
896:set([1017])
897:set([1017])
898:set([1032])
899:set([1001])
900:set([1024, 9, 25])
901:set([1024])
902:set([1031])
903:set([1038])
904:set([1024, 25, 34])
905:set([1032, 2])
906:set([1016])
907:set([1016])
908:set([1028])
909:set([1014])
910:set([1024])
911:set([1017])
912:set([1031])
913:set([1032])
914:set([1039])
915:set([1017])
916:set([1017])
917:set([1038])
918:set([1014])
919:set([1001])
920:set([1017])
921:set([1035])
922:set([1031])
923:set([1017])
924:set([1028])
925:set([1032])
926:set([1039])
927:set([0, 1033])
928:set([1031])
929:set([1035])
930:set([1031])
931:set([1039])
932:set([30, 1039])
933:set([1014])
934:set([1033, 7])
935:set([1006])
936:set([1032])
937:set([12, 1014])
938:set([1038])
939:set([1014])
940:set([1039])
941:set([1031])
942:set([1031])
943:set([1035])
944:set([1024, 25])
945:set([1039])
946:set([1033, 7])
947:set([1035])
948:set([27, 1028])
949:set([1016])
950:set([1001])
951:set([1024])
952:set([1033, 7])
953:set([1035])
954:set([12, 1014])
955:set([1001])
956:set([1017])
957:set([1024])
958:set([1016])
959:set([8, 25, 34, 1024])
960:set([3, 30, 1039])
961:set([30, 1039])
962:set([1006])
963:set([1035])
964:set([1001])
965:set([1031])
966:set([1017])
967:set([1014])
968:set([1024])
969:set([1016])
970:set([1038])
971:set([1014])
972:set([1032, 2])
973:set([1024])
974:set([1001])
975:set([1028])
976:set([1039])
977:set([1024, 34])
978:set([1031])
979:set([1017])
980:set([1006])
981:set([1038])
982:set([0, 1033, 34])
983:set([1031])
984:set([1032])
985:set([1024])
986:set([1039])
987:set([1028])
988:set([1001])
989:set([1017])
990:set([1016])
991:set([1016])
992:set([1006])
993:set([1032])
994:set([1039])
995:set([1035])
996:set([12, 1014])
997:set([1038])
998:set([1039])
999:set([1028])
