served_my algo: 166705    potential: 196374
served_my algo: 29924    potential: 32738
served_my algo: 30277    potential: 32815
served_my algo: 30149    potential: 32481
served_my algo: 30599    potential: 32677
