alpha:0.7 cache:0.05     served_my algo: 18151    potential: 20423
alpha:0.7 cache:0.05     served_my algo: 19475    potential: 20120
alpha:0.7 cache:0.05     served_my algo: 19787    potential: 20141
alpha:0.7 cache:0.05     served_my algo: 19879    potential: 20126
alpha:0.7 cache:0.05     served_my algo: 20096    potential: 20230
alpha:0.7 cache:0.05     served_my algo: 20278    potential: 20350
alpha:0.7 cache:0.05     served_my algo: 20151    potential: 20214
alpha:0.7 cache:0.05     served_my algo: 20012    potential: 20081
alpha:0.7 cache:0.05     served_my algo: 20156    potential: 20203
alpha:0.7 cache:0.05     served_my algo: 20179    potential: 20228
