served_my algo: 77381    potential: 91675
served_my algo: 13074    potential: 15185
served_my algo: 13022    potential: 15125
served_my algo: 13195    potential: 15251
served_my algo: 13313    potential: 15368
