served: 31668    potential: 52588
served: 31517    potential: 52406
served: 31446    potential: 52359
served: 31390    potential: 52326
served: 31634    potential: 52332
served: 31545    potential: 52563
served: 31217    potential: 51823
served: 31272    potential: 52108
served: 31287    potential: 52187
served: 31303    potential: 52057
---------------------------------
potential: 52282, 187
served: 31356, 376
