served_my algo: 68559    potential: 73151
served_my algo: 70430    potential: 73362
served_my algo: 70891    potential: 73229
served_my algo: 71277    potential: 73193
served_my algo: 71587    potential: 73307
served_my algo: 71606    potential: 73083
served_my algo: 71934    potential: 73317
served_my algo: 71904    potential: 73197
served_my algo: 72135    potential: 73362
served_my algo: 72148    potential: 73243
