served_my algo: 9631    potential: 14119
served_my algo: 10457    potential: 14067
served_my algo: 10911    potential: 14035
served_my algo: 11366    potential: 14058
served_my algo: 11643    potential: 14091
served_my algo: 11781    potential: 14031
served_my algo: 11920    potential: 14038
served_my algo: 12184    potential: 14144
served_my algo: 12338    potential: 14161
served_my algo: 12516    potential: 14233
