served_my algo: 30649    potential: 164818
served_my algo: 3458    potential: 14973
served_my algo: 3499    potential: 14888
served_my algo: 3529    potential: 15114
served_my algo: 3539    potential: 14914
---------------------------------------------

