served_my algo: 7791    potential: 11042
served_my algo: 8275    potential: 11086
served_my algo: 8330    potential: 11102
served_my algo: 8490    potential: 11046
served_my algo: 8497    potential: 11155
served_my algo: 8504    potential: 11058
served_my algo: 8445    potential: 11055
served_my algo: 8506    potential: 11109
served_my algo: 8592    potential: 11193
served_my algo: 8532    potential: 11054
