129
91
73
64
58
55
55
53
49
48
48
47
47
46
46
46
45
45
45
45
45
45
45
45
45
45
45
44
44
44
44
44
43
43
43
43
43
43
43
43
43
43
43
43
43
43
43
43
43
43
43
