162
115
91
81
75
71
71
63
63
63
61
60
59
57
55
54
54
54
53
52
52
51
51
50
50
50
50
50
50
49
49
49
48
48
48
48
48
48
48
48
48
48
48
48
48
48
48
48
48
48
48
