350
288
241
235
224
215
213
212
211
207
206
205
203
202
200
199
199
197
197
197
195
194
193
193
193
191
188
188
188
185
185
185
183
183
183
183
183
182
182
182
181
181
181
181
181
180
180
180
180
180
180
