served_my algo: 412328    potential: 629904
served_my algo: 38964    potential: 57098
served_my algo: 39415    potential: 57437
served_my algo: 39584    potential: 57498
served_my algo: 39450    potential: 57151
